…
# Delete sheet
> sheet_delete(ss=ssid_2, sheet="工作表1")
√ Deleting 1 sheet from R_test_2:
* 工作表1

# Delete a range of sheet
> range_delete(ss=ssid_2, sheet="alpha", range="A5:B5", shift="up")
√ Editing R_test_2.
√ Deleting cells in sheet alpha.

# Find the sheet in my drive
> gs4_find()
Auto-refreshing stale OAuth token.
# A dribble: 38 x 3
   name                          id                                           drive_resource   
   <chr>                         <drv_id>                                     <list>           
 1 R_test_2                      1hIlwNyLI6-xEMMkZkggDVozGouJpEeR2tcyemEju82c <named list [35]>
 2 R_test_1                      1C9iSvHCG4Z39C0DIXlhei4syqBuLVDTQeGpCr06xi4o <named list [35]>
 3 1101_2微課程課前問卷 (回覆)   1YtVfBajB8_qN8gvpCvi-Hhap-f5pwDbF3_z0QveU7fc <named list [34]>
 4 列表                          1SynNZSP6fhbUJ3swFhki3SaDGyz6osX6vlGT1zsDHEc <named list [35]>
 5 2021 Fall 交電加簽表單 (回覆) 1ATM5HjfzE7MPpoMc_j4zoU7JJCHEWtO4snmjSBUJc6k <named list [33]>
 6 1092_2 線上課程問卷 (回應)    1ppcEh9tbV1V34bWQPxdaq08zCFAeWZq24y5vwnO8Wy4 <named list [34]>
 7 喝飲料囉-碩論口試             1s7GUQAXqjEinkKhF6Kf1CNnEe7d2XO2OOi56a_lxAUs <named list [35]>
 8 喝飲料囉*2                    1K4-BDUtCIwISSmdRJpeI-cQzrApDs0XPZmzif1vYumA <named list [35]>
 9 R影片指令選擇                 1x07ZHmCFt2azUkBpwc1ktkP3BE2Ezy5CiRY0POfnxQM <named list [34]>
10 1092_1微課程課後問卷 (回應)   1colMWyiGYNGI0j-vt2QrHioT3fxMAHuC9ObUM3k1WjU <named list [34]>
# ... with 28 more rows
```
…
